[
    {
        "_id": 1,
        "email": "S533623@nwmissouri.edu",
        "firstname": "Sathwika",
        "lastname": "Gone",
        "phonenumber": 6605280207,
        "street": "1121N college Drive",
        "city": "Maryville",
        "state":"MO",
        "zip": 64468,
        "country": "USA"
    },
    {
        "_id": 2,
        "email": "S533619@nwmissouri.edu",
        "firstname": "Vennela",
        "lastname": "Cheekoti",
        "phonenumber": 6605281234,
        "street": "1121N college Drive",
        "city": "Maryville",
        "state":"MO",
        "zip": 64468,
        "country": "USA" 
    },
    {
        "_id": 3,
        "email": "vishalreddy.pannla@gmail.com",
        "firstname": "Vishal reddy",
        "lastname": "pannla",
        "phonenumber": 6605284567,
        "street": "L B Nagar",  
        "city": "Hyderabad",
        "state":"Telangana",
        "zip": 600161,
        "country": "India"    
    },
    {
        "_id": 4,
        "email": "sai@gmail.com",
        "firstname": "sai",
        "lastname": "Nalivela",
        "phonenumber": 6065287890,
        "street": "L B Nagar",
        "city": "Hyderabad",
        "state":"Telangana",
        "zip": 600161,
        "country": "India"    
    }
]